%YAML 1.1
%TAG !u! tag:unity3d.com,2011:
--- !u!74 &7400000
AnimationClip:
  m_ObjectHideFlags: 0
  m_CorrespondingSourceObject: {fileID: 0}
  m_PrefabInstance: {fileID: 0}
  m_PrefabAsset: {fileID: 0}
  m_Name: attackne
  serializedVersion: 6
  m_Legacy: 0
  m_Compressed: 0
  m_UseHighQualityCurve: 1
  m_RotationCurves: []
  m_CompressedRotationCurves: []
  m_EulerCurves: []
  m_PositionCurves: []
  m_ScaleCurves: []
  m_FloatCurves: []
  m_PPtrCurves:
  - curve:
    - time: 0
      value: {fileID: 21300000, guid: f74c1a62cdfe04247b0f7ab122adb899, type: 3}
    - time: 0.083333336
      value: {fileID: 21300000, guid: 77abb749fca05f74aae9e635efbc7a83, type: 3}
    - time: 0.16666667
      value: {fileID: 21300000, guid: 7c972cc8f3ae45b41aa00f5bfa270d6f, type: 3}
    - time: 0.25
      value: {fileID: 21300000, guid: 69d4722f138ae5c4482c15720c68cf0a, type: 3}
    - time: 0.33333334
      value: {fileID: 21300000, guid: 6a0c7f387c000a14097706763722834a, type: 3}
    - time: 0.41666666
      value: {fileID: 21300000, guid: cd4a89ef2f5042844b843bd847dc1c3b, type: 3}
    - time: 0.5
      value: {fileID: 21300000, guid: 6deff9575d1b0bf4a975317a9d809c14, type: 3}
    - time: 0.5833333
      value: {fileID: 21300000, guid: 354198be17c3bc349a2cf3be7b042bf1, type: 3}
    - time: 0.6666667
      value: {fileID: 21300000, guid: bec2b4b26e6e9d445bc35747260287d7, type: 3}
    - time: 0.75
      value: {fileID: 21300000, guid: 401a9f866be398b44bc107426eb5d2e5, type: 3}
    - time: 0.8333333
      value: {fileID: 21300000, guid: 384018dc030a2d946b239307a6753c0d, type: 3}
    - time: 0.9166667
      value: {fileID: 21300000, guid: eaccdc4c6320e884c81317458e5cc6d8, type: 3}
    attribute: m_Sprite
    path: 
    classID: 212
    script: {fileID: 0}
  m_SampleRate: 12
  m_WrapMode: 0
  m_Bounds:
    m_Center: {x: 0, y: 0, z: 0}
    m_Extent: {x: 0, y: 0, z: 0}
  m_ClipBindingConstant:
    genericBindings:
    - serializedVersion: 2
      path: 0
      attribute: 0
      script: {fileID: 0}
      typeID: 212
      customType: 23
      isPPtrCurve: 1
    pptrCurveMapping:
    - {fileID: 21300000, guid: f74c1a62cdfe04247b0f7ab122adb899, type: 3}
    - {fileID: 21300000, guid: 77abb749fca05f74aae9e635efbc7a83, type: 3}
    - {fileID: 21300000, guid: 7c972cc8f3ae45b41aa00f5bfa270d6f, type: 3}
    - {fileID: 21300000, guid: 69d4722f138ae5c4482c15720c68cf0a, type: 3}
    - {fileID: 21300000, guid: 6a0c7f387c000a14097706763722834a, type: 3}
    - {fileID: 21300000, guid: cd4a89ef2f5042844b843bd847dc1c3b, type: 3}
    - {fileID: 21300000, guid: 6deff9575d1b0bf4a975317a9d809c14, type: 3}
    - {fileID: 21300000, guid: 354198be17c3bc349a2cf3be7b042bf1, type: 3}
    - {fileID: 21300000, guid: bec2b4b26e6e9d445bc35747260287d7, type: 3}
    - {fileID: 21300000, guid: 401a9f866be398b44bc107426eb5d2e5, type: 3}
    - {fileID: 21300000, guid: 384018dc030a2d946b239307a6753c0d, type: 3}
    - {fileID: 21300000, guid: eaccdc4c6320e884c81317458e5cc6d8, type: 3}
  m_AnimationClipSettings:
    serializedVersion: 2
    m_AdditiveReferencePoseClip: {fileID: 0}
    m_AdditiveReferencePoseTime: 0
    m_StartTime: 0
    m_StopTime: 1
    m_OrientationOffsetY: 0
    m_Level: 0
    m_CycleOffset: 0
    m_HasAdditiveReferencePose: 0
    m_LoopTime: 1
    m_LoopBlend: 0
    m_LoopBlendOrientation: 0
    m_LoopBlendPositionY: 0
    m_LoopBlendPositionXZ: 0
    m_KeepOriginalOrientation: 0
    m_KeepOriginalPositionY: 1
    m_KeepOriginalPositionXZ: 0
    m_HeightFromFeet: 0
    m_Mirror: 0
  m_EditorCurves: []
  m_EulerEditorCurves: []
  m_HasGenericRootTransform: 0
  m_HasMotionFloatCurves: 0
  m_Events:
  - time: 0.5833333
    functionName: OnAttack
    data: 
    objectReferenceParameter: {fileID: 0}
    floatParameter: 0
    intParameter: 0
    messageOptions: 0
  - time: 1
    functionName: Stop
    data: 
    objectReferenceParameter: {fileID: 0}
    floatParameter: 0
    intParameter: 0
    messageOptions: 0
