%YAML 1.1
%TAG !u! tag:unity3d.com,2011:
--- !u!114 &11400000
MonoBehaviour:
  m_ObjectHideFlags: 0
  m_CorrespondingSourceObject: {fileID: 0}
  m_PrefabInstance: {fileID: 0}
  m_PrefabAsset: {fileID: 0}
  m_GameObject: {fileID: 0}
  m_Enabled: 1
  m_EditorHideFlags: 0
  m_Script: {fileID: 11500000, guid: 2d5751a2c961df945a34295ccf5e576d, type: 3}
  m_Name: ItemBrush
  m_EditorClassIdentifier: 
  m_Cells:
  - m_Tile: {fileID: 0}
    m_Matrix:
      e00: 1
      e01: 0
      e02: 0
      e03: 0
      e10: 0
      e11: 1
      e12: 0
      e13: 0
      e20: 0
      e21: 0
      e22: 1
      e23: 0
      e30: 0
      e31: 0
      e32: 0
      e33: 1
    m_Color: {r: 1, g: 1, b: 1, a: 1}
  m_Size: {x: 1, y: 1, z: 1}
  m_Pivot: {x: 0, y: 0, z: 0}
  m_Prefabs:
  - {fileID: 2950806871676796221, guid: 1f07345bd89e6fa43a86d30ff7efd0f8, type: 3}
  - {fileID: 2481926695536965246, guid: 9c0eeb4c0deb90147b9bcb442a319c03, type: 3}
  - {fileID: 8985565754762882147, guid: b66ee3b29c3e9a44da76b791c6cfa8cb, type: 3}
  - {fileID: 2211393398713393594, guid: 17d25629114721a40ac9bc1edfe09a9e, type: 3}
  m_PerlinScale: 0.001
  m_Z: 0
  objIndex: 3
