%YAML 1.1
%TAG !u! tag:unity3d.com,2011:
--- !u!74 &7400000
AnimationClip:
  m_ObjectHideFlags: 0
  m_CorrespondingSourceObject: {fileID: 0}
  m_PrefabInstance: {fileID: 0}
  m_PrefabAsset: {fileID: 0}
  m_Name: beenhitne
  serializedVersion: 6
  m_Legacy: 0
  m_Compressed: 0
  m_UseHighQualityCurve: 1
  m_RotationCurves: []
  m_CompressedRotationCurves: []
  m_EulerCurves: []
  m_PositionCurves: []
  m_ScaleCurves: []
  m_FloatCurves: []
  m_PPtrCurves:
  - curve:
    - time: 0
      value: {fileID: 21300000, guid: 5dde05362568186428bdb055549d5a0b, type: 3}
    - time: 0.083333336
      value: {fileID: 21300000, guid: 89b6fba2bd75eab4bb61c2de1e347309, type: 3}
    - time: 0.16666667
      value: {fileID: 21300000, guid: 9587a833795bb774984f0e95d6a3c657, type: 3}
    - time: 0.25
      value: {fileID: 21300000, guid: ed305c15494b989498985e483749eb8d, type: 3}
    - time: 0.33333334
      value: {fileID: 21300000, guid: ac8cf12a50dc59a40825d62cbcd00f82, type: 3}
    - time: 0.41666666
      value: {fileID: 21300000, guid: 809b6e2eeca738e4aa2a72ba50b2722b, type: 3}
    - time: 0.5
      value: {fileID: 21300000, guid: 105820642014f93469dde9074dacbc4f, type: 3}
    - time: 0.5833333
      value: {fileID: 21300000, guid: 52a9798d2d631a14d96b82d0f067d15b, type: 3}
    attribute: m_Sprite
    path: 
    classID: 212
    script: {fileID: 0}
  m_SampleRate: 12
  m_WrapMode: 0
  m_Bounds:
    m_Center: {x: 0, y: 0, z: 0}
    m_Extent: {x: 0, y: 0, z: 0}
  m_ClipBindingConstant:
    genericBindings:
    - serializedVersion: 2
      path: 0
      attribute: 0
      script: {fileID: 0}
      typeID: 212
      customType: 23
      isPPtrCurve: 1
    pptrCurveMapping:
    - {fileID: 21300000, guid: 5dde05362568186428bdb055549d5a0b, type: 3}
    - {fileID: 21300000, guid: 89b6fba2bd75eab4bb61c2de1e347309, type: 3}
    - {fileID: 21300000, guid: 9587a833795bb774984f0e95d6a3c657, type: 3}
    - {fileID: 21300000, guid: ed305c15494b989498985e483749eb8d, type: 3}
    - {fileID: 21300000, guid: ac8cf12a50dc59a40825d62cbcd00f82, type: 3}
    - {fileID: 21300000, guid: 809b6e2eeca738e4aa2a72ba50b2722b, type: 3}
    - {fileID: 21300000, guid: 105820642014f93469dde9074dacbc4f, type: 3}
    - {fileID: 21300000, guid: 52a9798d2d631a14d96b82d0f067d15b, type: 3}
  m_AnimationClipSettings:
    serializedVersion: 2
    m_AdditiveReferencePoseClip: {fileID: 0}
    m_AdditiveReferencePoseTime: 0
    m_StartTime: 0
    m_StopTime: 0.6666667
    m_OrientationOffsetY: 0
    m_Level: 0
    m_CycleOffset: 0
    m_HasAdditiveReferencePose: 0
    m_LoopTime: 1
    m_LoopBlend: 0
    m_LoopBlendOrientation: 0
    m_LoopBlendPositionY: 0
    m_LoopBlendPositionXZ: 0
    m_KeepOriginalOrientation: 0
    m_KeepOriginalPositionY: 1
    m_KeepOriginalPositionXZ: 0
    m_HeightFromFeet: 0
    m_Mirror: 0
  m_EditorCurves: []
  m_EulerEditorCurves: []
  m_HasGenericRootTransform: 0
  m_HasMotionFloatCurves: 0
  m_Events:
  - time: 0.6666667
    functionName: Stop
    data: 
    objectReferenceParameter: {fileID: 0}
    floatParameter: 0
    intParameter: 0
    messageOptions: 0
