%YAML 1.1
%TAG !u! tag:unity3d.com,2011:
--- !u!74 &7400000
AnimationClip:
  m_ObjectHideFlags: 0
  m_CorrespondingSourceObject: {fileID: 0}
  m_PrefabInstance: {fileID: 0}
  m_PrefabAsset: {fileID: 0}
  m_Name: beenhitn
  serializedVersion: 6
  m_Legacy: 0
  m_Compressed: 0
  m_UseHighQualityCurve: 1
  m_RotationCurves: []
  m_CompressedRotationCurves: []
  m_EulerCurves: []
  m_PositionCurves: []
  m_ScaleCurves: []
  m_FloatCurves: []
  m_PPtrCurves:
  - curve:
    - time: 0
      value: {fileID: 21300000, guid: acfcbfaa554d754499370fdeb57e9a53, type: 3}
    - time: 0.083333336
      value: {fileID: 21300000, guid: 621979bc87856d241809b963d2b90dc9, type: 3}
    - time: 0.16666667
      value: {fileID: 21300000, guid: 43fe9949c976a5e48b8db75af27cfeda, type: 3}
    - time: 0.25
      value: {fileID: 21300000, guid: ab84e5c7d09820d44a92370a3a05e0d4, type: 3}
    - time: 0.33333334
      value: {fileID: 21300000, guid: 5f2119f7d281ed3469c3c0796c8a736e, type: 3}
    - time: 0.41666666
      value: {fileID: 21300000, guid: d64a553ed107d9940b3e512e632671a1, type: 3}
    - time: 0.5
      value: {fileID: 21300000, guid: 3ef6618a4c6d5824ebc4f820f7393186, type: 3}
    - time: 0.5833333
      value: {fileID: 21300000, guid: 57efd0640ab81fd439926e390d05b060, type: 3}
    attribute: m_Sprite
    path: 
    classID: 212
    script: {fileID: 0}
  m_SampleRate: 12
  m_WrapMode: 0
  m_Bounds:
    m_Center: {x: 0, y: 0, z: 0}
    m_Extent: {x: 0, y: 0, z: 0}
  m_ClipBindingConstant:
    genericBindings:
    - serializedVersion: 2
      path: 0
      attribute: 0
      script: {fileID: 0}
      typeID: 212
      customType: 23
      isPPtrCurve: 1
    pptrCurveMapping:
    - {fileID: 21300000, guid: acfcbfaa554d754499370fdeb57e9a53, type: 3}
    - {fileID: 21300000, guid: 621979bc87856d241809b963d2b90dc9, type: 3}
    - {fileID: 21300000, guid: 43fe9949c976a5e48b8db75af27cfeda, type: 3}
    - {fileID: 21300000, guid: ab84e5c7d09820d44a92370a3a05e0d4, type: 3}
    - {fileID: 21300000, guid: 5f2119f7d281ed3469c3c0796c8a736e, type: 3}
    - {fileID: 21300000, guid: d64a553ed107d9940b3e512e632671a1, type: 3}
    - {fileID: 21300000, guid: 3ef6618a4c6d5824ebc4f820f7393186, type: 3}
    - {fileID: 21300000, guid: 57efd0640ab81fd439926e390d05b060, type: 3}
  m_AnimationClipSettings:
    serializedVersion: 2
    m_AdditiveReferencePoseClip: {fileID: 0}
    m_AdditiveReferencePoseTime: 0
    m_StartTime: 0
    m_StopTime: 0.6666667
    m_OrientationOffsetY: 0
    m_Level: 0
    m_CycleOffset: 0
    m_HasAdditiveReferencePose: 0
    m_LoopTime: 1
    m_LoopBlend: 0
    m_LoopBlendOrientation: 0
    m_LoopBlendPositionY: 0
    m_LoopBlendPositionXZ: 0
    m_KeepOriginalOrientation: 0
    m_KeepOriginalPositionY: 1
    m_KeepOriginalPositionXZ: 0
    m_HeightFromFeet: 0
    m_Mirror: 0
  m_EditorCurves: []
  m_EulerEditorCurves: []
  m_HasGenericRootTransform: 0
  m_HasMotionFloatCurves: 0
  m_Events:
  - time: 0.6666667
    functionName: Stop
    data: 
    objectReferenceParameter: {fileID: 0}
    floatParameter: 0
    intParameter: 0
    messageOptions: 0
