%YAML 1.1
%TAG !u! tag:unity3d.com,2011:
--- !u!74 &7400000
AnimationClip:
  m_ObjectHideFlags: 0
  m_CorrespondingSourceObject: {fileID: 0}
  m_PrefabInstance: {fileID: 0}
  m_PrefabAsset: {fileID: 0}
  m_Name: beenhitsw
  serializedVersion: 6
  m_Legacy: 0
  m_Compressed: 0
  m_UseHighQualityCurve: 1
  m_RotationCurves: []
  m_CompressedRotationCurves: []
  m_EulerCurves: []
  m_PositionCurves: []
  m_ScaleCurves: []
  m_FloatCurves: []
  m_PPtrCurves:
  - curve:
    - time: 0
      value: {fileID: 21300000, guid: 40266c8c21978154a98b75b64bcb9d1d, type: 3}
    - time: 0.083333336
      value: {fileID: 21300000, guid: 6109687108c093d42987d7430ebb21e3, type: 3}
    - time: 0.16666667
      value: {fileID: 21300000, guid: 2fa7a5ad3ad188142a2c6d56e137243c, type: 3}
    - time: 0.25
      value: {fileID: 21300000, guid: 149051732f13dd94fac92d66a8bd1ae7, type: 3}
    - time: 0.33333334
      value: {fileID: 21300000, guid: 89cb80ec0431c7d4ca39a1581a49ea20, type: 3}
    - time: 0.41666666
      value: {fileID: 21300000, guid: 0e738aad786e0e745bff9261a01b051d, type: 3}
    - time: 0.5
      value: {fileID: 21300000, guid: 8da0ff18499fa644eb640b7294bb1ed9, type: 3}
    - time: 0.5833333
      value: {fileID: 21300000, guid: b7a431b49c9d046468c16100a3fa6ee1, type: 3}
    attribute: m_Sprite
    path: 
    classID: 212
    script: {fileID: 0}
  m_SampleRate: 12
  m_WrapMode: 0
  m_Bounds:
    m_Center: {x: 0, y: 0, z: 0}
    m_Extent: {x: 0, y: 0, z: 0}
  m_ClipBindingConstant:
    genericBindings:
    - serializedVersion: 2
      path: 0
      attribute: 0
      script: {fileID: 0}
      typeID: 212
      customType: 23
      isPPtrCurve: 1
    pptrCurveMapping:
    - {fileID: 21300000, guid: 40266c8c21978154a98b75b64bcb9d1d, type: 3}
    - {fileID: 21300000, guid: 6109687108c093d42987d7430ebb21e3, type: 3}
    - {fileID: 21300000, guid: 2fa7a5ad3ad188142a2c6d56e137243c, type: 3}
    - {fileID: 21300000, guid: 149051732f13dd94fac92d66a8bd1ae7, type: 3}
    - {fileID: 21300000, guid: 89cb80ec0431c7d4ca39a1581a49ea20, type: 3}
    - {fileID: 21300000, guid: 0e738aad786e0e745bff9261a01b051d, type: 3}
    - {fileID: 21300000, guid: 8da0ff18499fa644eb640b7294bb1ed9, type: 3}
    - {fileID: 21300000, guid: b7a431b49c9d046468c16100a3fa6ee1, type: 3}
  m_AnimationClipSettings:
    serializedVersion: 2
    m_AdditiveReferencePoseClip: {fileID: 0}
    m_AdditiveReferencePoseTime: 0
    m_StartTime: 0
    m_StopTime: 0.6666667
    m_OrientationOffsetY: 0
    m_Level: 0
    m_CycleOffset: 0
    m_HasAdditiveReferencePose: 0
    m_LoopTime: 1
    m_LoopBlend: 0
    m_LoopBlendOrientation: 0
    m_LoopBlendPositionY: 0
    m_LoopBlendPositionXZ: 0
    m_KeepOriginalOrientation: 0
    m_KeepOriginalPositionY: 1
    m_KeepOriginalPositionXZ: 0
    m_HeightFromFeet: 0
    m_Mirror: 0
  m_EditorCurves: []
  m_EulerEditorCurves: []
  m_HasGenericRootTransform: 0
  m_HasMotionFloatCurves: 0
  m_Events:
  - time: 0.6666667
    functionName: Stop
    data: 
    objectReferenceParameter: {fileID: 0}
    floatParameter: 0
    intParameter: 0
    messageOptions: 0
