%YAML 1.1
%TAG !u! tag:unity3d.com,2011:
--- !u!114 &11400000
MonoBehaviour:
  m_ObjectHideFlags: 0
  m_CorrespondingSourceObject: {fileID: 0}
  m_PrefabInstance: {fileID: 0}
  m_PrefabAsset: {fileID: 0}
  m_GameObject: {fileID: 0}
  m_Enabled: 1
  m_EditorHideFlags: 0
  m_Script: {fileID: 11500000, guid: 1deea3ac00c6da241bbd98a9bcec9b20, type: 3}
  m_Name: New Inventory List
  m_EditorClassIdentifier: 
  inventory:
  - {fileID: 11400000, guid: c3f159921248a9a4ba08d1fc0bab2fc9, type: 2}
  - {fileID: 11400000, guid: 96e00e25e080ed949a57c9596ed676fd, type: 2}
  - {fileID: 11400000, guid: 5c2f56cb5e607c84698e01e20cd33916, type: 2}
