%YAML 1.1
%TAG !u! tag:unity3d.com,2011:
--- !u!114 &11400000
MonoBehaviour:
  m_ObjectHideFlags: 0
  m_CorrespondingSourceObject: {fileID: 0}
  m_PrefabInstance: {fileID: 0}
  m_PrefabAsset: {fileID: 0}
  m_GameObject: {fileID: 0}
  m_Enabled: 1
  m_EditorHideFlags: 0
  m_Script: {fileID: 11500000, guid: 8ee710d93707ea848be8dfbcad2cb9ad, type: 3}
  m_Name: Axe_1
  m_EditorClassIdentifier: 
  noun: woodcutter
  basicValue: 0
  flDescr: Full description
  appearance: {fileID: 21300000, guid: ddd64d09a72857e49811f7b4561f52be, type: 3}
  prefabRef: {fileID: 649047682385715355, guid: 476c3f02a50fac34abb4c21a5e88e934,
    type: 3}
  weight: 3
  weaponType: 0
  evasionBonus: 2
  parryBonus: 2
  posAttacks:
  - weaponPart: blade
    damageType: 1
    rawDamage: 18
  - weaponPart: head
    damageType: 0
    rawDamage: 7
