%YAML 1.1
%TAG !u! tag:unity3d.com,2011:
--- !u!114 &11400000
MonoBehaviour:
  m_ObjectHideFlags: 0
  m_CorrespondingSourceObject: {fileID: 0}
  m_PrefabInstance: {fileID: 0}
  m_PrefabAsset: {fileID: 0}
  m_GameObject: {fileID: 0}
  m_Enabled: 1
  m_EditorHideFlags: 0
  m_Script: {fileID: 11500000, guid: 8ee710d93707ea848be8dfbcad2cb9ad, type: 3}
  m_Name: Spear_1
  m_EditorClassIdentifier: 
  noun: spear
  basicValue: 0
  flDescr: Full description
  appearance: {fileID: 21300000, guid: 09113c6d4851e7b4abca35f5c321ec9d, type: 3}
  prefabRef: {fileID: 8641928734479494793, guid: 4b2766c7d7ce41c43a0260b48186530f,
    type: 3}
  weight: 3
  weaponType: 2
  evasionBonus: 5
  parryBonus: 5
  posAttacks:
  - weaponPart: end
    damageType: 2
    rawDamage: 13
  - weaponPart: pole
    damageType: 0
    rawDamage: 6
