%YAML 1.1
%TAG !u! tag:unity3d.com,2011:
--- !u!114 &11400000
MonoBehaviour:
  m_ObjectHideFlags: 0
  m_CorrespondingSourceObject: {fileID: 0}
  m_PrefabInstance: {fileID: 0}
  m_PrefabAsset: {fileID: 0}
  m_GameObject: {fileID: 0}
  m_Enabled: 1
  m_EditorHideFlags: 0
  m_Script: {fileID: 11500000, guid: 16dc7cb5ad976f546bb0f25067941714, type: 3}
  m_Name: Potion_1
  m_EditorClassIdentifier: 
  noun: potion1
  basicValue: 0
  flDescr: Full description
  appearance: {fileID: 21300000, guid: edb97ac3bffcad04fb56c54cf9857bd9, type: 3}
  prefabRef: {fileID: 2211393398713393594, guid: 17d25629114721a40ac9bc1edfe09a9e,
    type: 3}
  effects:
  - eff: 2
    param: 0
    value: 25
    subparam: 
